{"amount": 1000,
"frecuency": 2,
"rules":[{"cryptoCurrency":{"name":"BITCOIN","symbol":"BTC"},"deltaPercentage":1,"quantity":1,"operationType":"BUY", "referencePrice": 100},{"cryptoCurrency":{"name":"BITCOIN","symbol":"BTC"},"deltaPercentage":2,"quantity":1,"operationType":"SELL","referencePrice":100}]
}
